{
    "id": "162ba071-a006-4496-ba37-59fee7068e4b",
    "schema": "https://metadata.datadrivendiscovery.org/schemas/v0/pipeline.json",
    "created": "2020-11-14T21:49:54.514919Z",
    "inputs": [
        {
            "name": "inputs"
        }
    ],
    "outputs": [
        {
            "data": "steps.0.produce",
            "name": "Predictions"
        }
    ],
    "steps": [
        {
            "type": "PRIMITIVE",
            "primitive": {
                "id": "ff22e721-e4f5-32c9-ab51-b90f32603a56",
                "version": "0.1.0",
                "python_path": "d3m.primitives.graph_matching.seeded_graph_matching.JHU",
                "name": "jhu.sgm",
                "digest": "3d15dd7e29070a12bda24f84704f7ef0653b22459ba37c2daae6f21b5e232fd4"
            },
            "arguments": {
                "inputs": {
                    "type": "CONTAINER",
                    "data": "inputs.0"
                }
            },
            "outputs": [
                {
                    "id": "produce"
                }
            ]
        }
    ],
    "digest": "70efb546400264753daec52d0b3ad8bbbc51cfb1f853139ce041b6fff8db474d"
}