{
    "id": "923a7d80-9b8f-4013-a7d9-da5171e9f759",
    "schema": "https://metadata.datadrivendiscovery.org/schemas/v0/pipeline.json",
    "created": "2020-11-19T22:53:41.839229Z",
    "inputs": [
        {
            "name": "input_data"
        }
    ],
    "outputs": [
        {
            "data": "steps.16.produce",
            "name": "output"
        }
    ],
    "steps": [
        {
            "type": "PRIMITIVE",
            "primitive": {
                "id": "f31f8c1f-d1c5-43e5-a4b2-2ae4a761ef2e",
                "version": "0.2.0",
                "python_path": "d3m.primitives.data_transformation.denormalize.Common",
                "name": "Denormalize datasets"
            },
            "arguments": {
                "inputs": {
                    "type": "CONTAINER",
                    "data": "inputs.0"
                }
            },
            "outputs": [
                {
                    "id": "produce"
                }
            ]
        },
        {
            "type": "PRIMITIVE",
            "primitive": {
                "id": "4b42ce1e-9b98-4a25-b68e-fad13311eb65",
                "version": "0.3.0",
                "python_path": "d3m.primitives.data_transformation.dataset_to_dataframe.Common",
                "name": "Extract a DataFrame from a Dataset"
            },
            "arguments": {
                "inputs": {
                    "type": "CONTAINER",
                    "data": "steps.0.produce"
                }
            },
            "outputs": [
                {
                    "id": "produce"
                }
            ]
        },
        {
            "type": "PRIMITIVE",
            "primitive": {
                "id": "e193afa1-b45e-4d29-918f-5bb1fa3b88a7",
                "version": "0.2.0",
                "python_path": "d3m.primitives.schema_discovery.profiler.Common",
                "name": "Determine missing semantic types for columns automatically"
            },
            "arguments": {
                "inputs": {
                    "type": "CONTAINER",
                    "data": "steps.1.produce"
                }
            },
            "outputs": [
                {
                    "id": "produce"
                }
            ],
            "hyperparams": {
                "return_result": {
                    "type": "VALUE",
                    "data": "replace"
                },
                "categorical_max_absolute_distinct_values": {
                    "type": "VALUE",
                    "data": {
                        "case": "unlimited",
                        "value": null
                    }
                },
                "categorical_max_ratio_distinct_values": {
                    "type": "VALUE",
                    "data": 0.2
                },
                "use_columns": {
                    "type": "VALUE",
                    "data": [
                        2,
                        3,
                        4,
                        5
                    ]
                }
            }
        },
        {
            "type": "PRIMITIVE",
            "primitive": {
                "id": "7bae062e-f8b0-4358-91f2-9288a51f3e82",
                "version": "0.2.0",
                "python_path": "d3m.primitives.data_transformation.replace_semantic_types.Common",
                "name": "Replace semantic types for columns"
            },
            "arguments": {
                "inputs": {
                    "type": "CONTAINER",
                    "data": "steps.2.produce"
                }
            },
            "outputs": [
                {
                    "id": "produce"
                }
            ],
            "hyperparams": {
                "return_result": {
                    "type": "VALUE",
                    "data": "replace"
                },
                "from_semantic_types": {
                    "type": "VALUE",
                    "data": [
                        "https://metadata.datadrivendiscovery.org/types/UnknownType"
                    ]
                },
                "to_semantic_types": {
                    "type": "VALUE",
                    "data": [
                        "https://metadata.datadrivendiscovery.org/types/CategoricalData"
                    ]
                },
                "use_columns": {
                    "type": "VALUE",
                    "data": [
                        6
                    ]
                }
            }
        },
        {
            "type": "PRIMITIVE",
            "primitive": {
                "id": "d510cb7a-1782-4f51-b44c-58f0236e47c7",
                "version": "0.6.0",
                "python_path": "d3m.primitives.data_transformation.column_parser.Common",
                "name": "Parses strings into their types"
            },
            "arguments": {
                "inputs": {
                    "type": "CONTAINER",
                    "data": "steps.3.produce"
                }
            },
            "outputs": [
                {
                    "id": "produce"
                }
            ],
            "hyperparams": {
                "parse_semantic_types": {
                    "type": "VALUE",
                    "data": [
                        "http://schema.org/Integer",
                        "http://schema.org/Float",
                        "https://metadata.datadrivendiscovery.org/types/FloatVector",
                        "http://schema.org/DateTime"
                    ]
                }
            }
        },
        {
            "type": "PRIMITIVE",
            "primitive": {
                "id": "7bae062e-f8b0-4358-91f2-9288a51f3e82",
                "version": "0.2.0",
                "python_path": "d3m.primitives.data_transformation.replace_semantic_types.Common",
                "name": "Replace semantic types for columns"
            },
            "arguments": {
                "inputs": {
                    "type": "CONTAINER",
                    "data": "steps.4.produce"
                }
            },
            "outputs": [
                {
                    "id": "produce"
                }
            ],
            "hyperparams": {
                "return_result": {
                    "type": "VALUE",
                    "data": "replace"
                },
                "from_semantic_types": {
                    "type": "VALUE",
                    "data": [
                        "http://schema.org/Boolean"
                    ]
                },
                "to_semantic_types": {
                    "type": "VALUE",
                    "data": [
                        "https://metadata.datadrivendiscovery.org/types/CategoricalData"
                    ]
                },
                "use_columns": {
                    "type": "VALUE",
                    "data": [
                        2,
                        3,
                        4
                    ]
                }
            }
        },
        {
            "type": "PRIMITIVE",
            "primitive": {
                "id": "eaec420d-46eb-4ddf-a2cd-b8097345ff3e",
                "version": "0.3.0",
                "python_path": "d3m.primitives.data_preprocessing.one_hot_encoder.MakerCommon",
                "name": "One-hot maker"
            },
            "arguments": {
                "inputs": {
                    "type": "CONTAINER",
                    "data": "steps.5.produce"
                }
            },
            "outputs": [
                {
                    "id": "produce"
                }
            ],
            "hyperparams": {
                "return_result": {
                    "type": "VALUE",
                    "data": "replace"
                },
                "encode_target_columns": {
                    "type": "VALUE",
                    "data": true
                },
                "handle_missing_value": {
                    "type": "VALUE",
                    "data": "column"
                },
                "use_columns": {
                    "type": "VALUE",
                    "data": [
                        2,
                        3,
                        4
                    ]
                }
            }
        },
        {
            "type": "PRIMITIVE",
            "primitive": {
                "id": "eaec420d-46eb-4ddf-a2cd-b8097345ff3e",
                "version": "0.3.0",
                "python_path": "d3m.primitives.data_preprocessing.one_hot_encoder.MakerCommon",
                "name": "One-hot maker"
            },
            "arguments": {
                "inputs": {
                    "type": "CONTAINER",
                    "data": "steps.6.produce"
                }
            },
            "outputs": [
                {
                    "id": "produce"
                }
            ],
            "hyperparams": {
                "return_result": {
                    "type": "VALUE",
                    "data": "replace"
                },
                "encode_target_columns": {
                    "type": "VALUE",
                    "data": true
                },
                "handle_unseen": {
                    "type": "VALUE",
                    "data": "column"
                },
                "handle_missing_value": {
                    "type": "VALUE",
                    "data": "column"
                },
                "use_columns": {
                    "type": "VALUE",
                    "data": [
                        10
                    ]
                }
            }
        },
        {
            "type": "PRIMITIVE",
            "primitive": {
                "id": "0b21fcca-8b35-457d-a65d-36294c6f80a2",
                "version": "0.1.0",
                "python_path": "d3m.primitives.data_preprocessing.text_reader.Common",
                "name": "Columns text reader"
            },
            "arguments": {
                "inputs": {
                    "type": "CONTAINER",
                    "data": "steps.7.produce"
                }
            },
            "outputs": [
                {
                    "id": "produce"
                }
            ],
            "hyperparams": {
                "return_result": {
                    "type": "VALUE",
                    "data": "replace"
                }
            }
        },
        {
            "type": "PRIMITIVE",
            "primitive": {
                "id": "4503a4c6-42f7-45a1-a1d4-ed69699cf5e1",
                "version": "0.4.0",
                "python_path": "d3m.primitives.data_transformation.extract_columns_by_semantic_types.Common",
                "name": "Extracts columns by semantic type"
            },
            "arguments": {
                "inputs": {
                    "type": "CONTAINER",
                    "data": "steps.8.produce"
                }
            },
            "outputs": [
                {
                    "id": "produce"
                }
            ],
            "hyperparams": {
                "semantic_types": {
                    "type": "VALUE",
                    "data": [
                        "https://metadata.datadrivendiscovery.org/types/Attribute"
                    ]
                }
            }
        },
        {
            "type": "PRIMITIVE",
            "primitive": {
                "id": "4503a4c6-42f7-45a1-a1d4-ed69699cf5e1",
                "version": "0.4.0",
                "python_path": "d3m.primitives.data_transformation.extract_columns_by_semantic_types.Common",
                "name": "Extracts columns by semantic type"
            },
            "arguments": {
                "inputs": {
                    "type": "CONTAINER",
                    "data": "steps.8.produce"
                }
            },
            "outputs": [
                {
                    "id": "produce"
                }
            ],
            "hyperparams": {
                "semantic_types": {
                    "type": "VALUE",
                    "data": [
                        "https://metadata.datadrivendiscovery.org/types/Target"
                    ]
                }
            }
        },
        {
            "type": "PRIMITIVE",
            "primitive": {
                "id": "09f252eb-215d-4e0b-9a60-fcd967f5e708",
                "version": "0.4.1",
                "python_path": "d3m.primitives.data_transformation.encoder.DistilTextEncoder",
                "name": "Text encoder"
            },
            "arguments": {
                "inputs": {
                    "type": "CONTAINER",
                    "data": "steps.9.produce"
                },
                "outputs": {
                    "type": "CONTAINER",
                    "data": "steps.10.produce"
                }
            },
            "outputs": [
                {
                    "id": "produce"
                }
            ],
            "hyperparams": {
                "encoder_type": {
                    "type": "VALUE",
                    "data": "tfidf"
                }
            }
        },
        {
            "type": "PRIMITIVE",
            "primitive": {
                "id": "d7e14b12-abeb-42d8-942f-bdb077b4fd37",
                "version": "0.1.0",
                "python_path": "d3m.primitives.data_transformation.add_semantic_types.Common",
                "name": "Add semantic types to columns"
            },
            "arguments": {
                "inputs": {
                    "type": "CONTAINER",
                    "data": "steps.11.produce"
                }
            },
            "outputs": [
                {
                    "id": "produce"
                }
            ],
            "hyperparams": {
                "columns": {
                    "type": "VALUE",
                    "data": [
                        16,
                        17,
                        18,
                        19,
                        20,
                        21,
                        22,
                        23,
                        24,
                        25,
                        26,
                        27,
                        28,
                        29,
                        30
                    ]
                },
                "semantic_types": {
                    "type": "VALUE",
                    "data": [
                        "http://schema.org/Float",
                        "https://metadata.datadrivendiscovery.org/types/Attribute"
                    ]
                }
            }
        },
        {
            "type": "PRIMITIVE",
            "primitive": {
                "id": "3e53391c-74aa-443f-bf2a-8890f3e7d7b6",
                "version": "0.1.0",
                "python_path": "d3m.primitives.data_transformation.horizontal_concat.TAMU",
                "name": "Concatenate multiple dataframes"
            },
            "arguments": {
                "inputs": {
                    "type": "CONTAINER",
                    "data": [
                        "steps.10.produce",
                        "steps.12.produce"
                    ]
                }
            },
            "outputs": [
                {
                    "id": "produce"
                }
            ]
        },
        {
            "type": "PRIMITIVE",
            "primitive": {
                "id": "854727ed-c82c-3137-ac59-fd52bc9ba385",
                "version": "2020.6.24",
                "python_path": "d3m.primitives.data_preprocessing.robust_scaler.SKlearn",
                "name": "sklearn.preprocessing.data.RobustScaler"
            },
            "arguments": {
                "inputs": {
                    "type": "CONTAINER",
                    "data": "steps.13.produce"
                }
            },
            "outputs": [
                {
                    "id": "produce"
                }
            ],
            "hyperparams": {
                "return_result": {
                    "type": "VALUE",
                    "data": "replace"
                },
                "use_semantic_types": {
                    "type": "VALUE",
                    "data": true
                }
            }
        },
        {
            "type": "PRIMITIVE",
            "primitive": {
                "id": "e20d003d-6a9f-35b0-b4b5-20e42b30282a",
                "version": "2020.6.24",
                "python_path": "d3m.primitives.classification.decision_tree.SKlearn",
                "name": "sklearn.tree.tree.DecisionTreeClassifier"
            },
            "arguments": {
                "inputs": {
                    "type": "CONTAINER",
                    "data": "steps.14.produce"
                },
                "outputs": {
                    "type": "CONTAINER",
                    "data": "steps.14.produce"
                }
            },
            "outputs": [
                {
                    "id": "produce"
                }
            ],
            "hyperparams": {
                "use_semantic_types": {
                    "type": "VALUE",
                    "data": true
                },
                "return_result": {
                    "type": "VALUE",
                    "data": "replace"
                }
            }
        },
        {
            "type": "PRIMITIVE",
            "primitive": {
                "id": "8d38b340-f83f-4877-baaa-162f8e551736",
                "version": "0.3.0",
                "python_path": "d3m.primitives.data_transformation.construct_predictions.Common",
                "name": "Construct pipeline predictions output"
            },
            "arguments": {
                "inputs": {
                    "type": "CONTAINER",
                    "data": "steps.15.produce"
                },
                "reference": {
                    "type": "CONTAINER",
                    "data": "steps.3.produce"
                }
            },
            "outputs": [
                {
                    "id": "produce"
                }
            ]
        }
    ]
}