{
    "id": "2e88e9b4-8e75-4033-ac8c-e268edc40081",
    "schema": "https://metadata.datadrivendiscovery.org/schemas/v0/pipeline.json",
    "created": "2020-07-19T03:47:20.291871Z",
    "inputs": [
        {
            "name": "inputs"
        }
    ],
    "outputs": [
        {
            "data": "steps.8.produce",
            "name": "output predictions"
        }
    ],
    "steps": [
        {
            "type": "PRIMITIVE",
            "primitive": {
                "id": "f31f8c1f-d1c5-43e5-a4b2-2ae4a761ef2e",
                "version": "0.2.0",
                "python_path": "d3m.primitives.data_transformation.denormalize.Common",
                "name": "Denormalize datasets",
                "digest": "5ec2ce5eeaaada3fad7735605b8d481a8b101d4d3d8cff87fc619ade414901e7"
            },
            "arguments": {
                "inputs": {
                    "type": "CONTAINER",
                    "data": "inputs.0"
                }
            },
            "outputs": [
                {
                    "id": "produce"
                }
            ]
        },
        {
            "type": "PRIMITIVE",
            "primitive": {
                "id": "4b42ce1e-9b98-4a25-b68e-fad13311eb65",
                "version": "0.3.0",
                "python_path": "d3m.primitives.data_transformation.dataset_to_dataframe.Common",
                "name": "Extract a DataFrame from a Dataset",
                "digest": "f64a23466b0e4490b5fdef630a5d1ecb5cfd9bbd0c34c8ccb3dbd557b4d5a918"
            },
            "arguments": {
                "inputs": {
                    "type": "CONTAINER",
                    "data": "steps.0.produce"
                }
            },
            "outputs": [
                {
                    "id": "produce"
                }
            ]
        },
        {
            "type": "PRIMITIVE",
            "primitive": {
                "id": "e193afa1-b45e-4d29-918f-5bb1fa3b88a7",
                "version": "0.2.0",
                "python_path": "d3m.primitives.schema_discovery.profiler.Common",
                "name": "Determine missing semantic types for columns automatically",
                "digest": "09a959be9f65330422bc66b1c0e207cc2981ca0aa8ee7e5b12b246937984f652"
            },
            "arguments": {
                "inputs": {
                    "type": "CONTAINER",
                    "data": "steps.1.produce"
                }
            },
            "outputs": [
                {
                    "id": "produce"
                }
            ]
        },
        {
            "type": "PRIMITIVE",
            "primitive": {
                "id": "37a1f243-8b80-4b87-a5f9-a3c25984995c",
                "version": "0.1.0",
                "python_path": "d3m.primitives.feature_extraction.vggnet_cnn.UBC",
                "name": "VGG16 Convolutional Neural Network",
                "digest": "b4709ce41ee3741ee16aa4a8f9adb5d55b8b3b6689102cba9bfa74c1c2c1d851"
            },
            "arguments": {
                "inputs": {
                    "type": "CONTAINER",
                    "data": "steps.2.produce"
                },
                "outputs": {
                    "type": "CONTAINER",
                    "data": "steps.1.produce"
                }
            },
            "outputs": [
                {
                    "id": "produce"
                }
            ],
            "hyperparams": {
                "feature_extract_only": {
                    "type": "VALUE",
                    "data": true
                },
                "include_top": {
                    "type": "VALUE",
                    "data": true
                }
            }
        },
        {
            "type": "PRIMITIVE",
            "primitive": {
                "id": "f44b6fd4-fd56-48d9-8fdc-c38300c8d256",
                "version": "0.1.0",
                "python_path": "d3m.primitives.dimensionality_reduction.principal_component_analysis.UBC",
                "name": "Principal Component Analysis",
                "digest": "09bfc448ed2062485e5cee8ae60ff2ba228c835d405717bb633c619a47963aeb"
            },
            "arguments": {
                "inputs": {
                    "type": "CONTAINER",
                    "data": "steps.3.produce"
                }
            },
            "outputs": [
                {
                    "id": "produce"
                }
            ],
            "hyperparams": {
                "max_components": {
                    "type": "VALUE",
                    "data": 128
                }
            }
        },
        {
            "type": "PRIMITIVE",
            "primitive": {
                "id": "be2ecea2-bae0-4a11-8493-005769b41d5f",
                "version": "0.1.0",
                "python_path": "d3m.primitives.operator.diagonal_mvn.UBC",
                "name": "Diagonal Multivariate Normal Distribution primitive",
                "digest": "a089a936a66b5a5e4baf0453e93384746fde4b2d831fbc4f05fdb96e6f5fb3b6"
            },
            "arguments": {
                "inputs": {
                    "type": "CONTAINER",
                    "data": "steps.4.produce"
                },
                "outputs": {
                    "type": "CONTAINER",
                    "data": "steps.1.produce"
                }
            },
            "outputs": [
                {
                    "id": "produce"
                }
            ],
            "hyperparams": {
                "num_iterations": {
                    "type": "VALUE",
                    "data": 1
                }
            }
        },
        {
            "type": "PRIMITIVE",
            "primitive": {
                "id": "4503a4c6-42f7-45a1-a1d4-ed69699cf5e1",
                "version": "0.4.0",
                "python_path": "d3m.primitives.data_transformation.extract_columns_by_semantic_types.Common",
                "name": "Extracts columns by semantic type",
                "digest": "cf44b2f5af90f10ef9935496655a202bfc8a4a0fa24b8e9d733ee61f096bda87"
            },
            "arguments": {
                "inputs": {
                    "type": "CONTAINER",
                    "data": "steps.1.produce"
                }
            },
            "outputs": [
                {
                    "id": "produce"
                }
            ],
            "hyperparams": {
                "semantic_types": {
                    "type": "VALUE",
                    "data": [
                        "https://metadata.datadrivendiscovery.org/types/TrueTarget"
                    ]
                }
            }
        },
        {
            "type": "PRIMITIVE",
            "primitive": {
                "id": "cdbb80e4-e9de-4caa-a710-16b5d727b959",
                "version": "0.1.0",
                "python_path": "d3m.primitives.regression.xgboost_gbtree.Common",
                "name": "XGBoost GBTree regressor",
                "digest": "ab94fedc7bb58ddd5846ea684c2872f144e060054524317b13c8dde6b80b30f7"
            },
            "arguments": {
                "inputs": {
                    "type": "CONTAINER",
                    "data": "steps.5.produce"
                },
                "outputs": {
                    "type": "CONTAINER",
                    "data": "steps.6.produce"
                }
            },
            "outputs": [
                {
                    "id": "produce"
                }
            ]
        },
        {
            "type": "PRIMITIVE",
            "primitive": {
                "id": "8d38b340-f83f-4877-baaa-162f8e551736",
                "version": "0.3.0",
                "python_path": "d3m.primitives.data_transformation.construct_predictions.Common",
                "name": "Construct pipeline predictions output",
                "digest": "77da1bc7ef57cf3bf6c0d72a8917fb5d337fd05b151a20b31836ddd0c041824b"
            },
            "arguments": {
                "inputs": {
                    "type": "CONTAINER",
                    "data": "steps.7.produce"
                },
                "reference": {
                    "type": "CONTAINER",
                    "data": "steps.1.produce"
                }
            },
            "outputs": [
                {
                    "id": "produce"
                }
            ]
        }
    ],
    "digest": "0e0288cf0237504196695b02ee4df6cecde34ba355ebb9e29a95e549995b8a50"
}