{
    "created": "2020-06-09T05:28:43.534642Z",
    "digest": "7deab5943533f2e40ee4e355a0cc27f8da4f67bb3293898c4c0ebeaa9a7d5b8b",
    "id": "35683b21-90fd-4c6c-be67-ad3a72d32bb7",
    "inputs": [
        {
            "name": "inputs"
        }
    ],
    "outputs": [
        {
            "data": "steps.8.produce",
            "name": "output predictions"
        }
    ],
    "schema": "https://metadata.datadrivendiscovery.org/schemas/v0/pipeline.json",
    "steps": [
        {
            "arguments": {
                "inputs": {
                    "data": "inputs.0",
                    "type": "CONTAINER"
                }
            },
            "outputs": [
                {
                    "id": "produce"
                }
            ],
            "primitive": {
                "digest": "422744651afd5995d029a227a1dd7b1696038816b7eb9601f37d661757812aee",
                "id": "4b42ce1e-9b98-4a25-b68e-fad13311eb65",
                "name": "Extract a DataFrame from a Dataset",
                "python_path": "d3m.primitives.data_transformation.dataset_to_dataframe.Common",
                "version": "0.3.0"
            },
            "type": "PRIMITIVE"
        },
        {
            "arguments": {
                "inputs": {
                    "data": "steps.0.produce",
                    "type": "CONTAINER"
                }
            },
            "hyperparams": {
                "detect_semantic_types": {
                    "data": [
                        "https://metadata.datadrivendiscovery.org/types/CategoricalData",
                        "http://schema.org/Integer",
                        "http://schema.org/Float",
                        "http://schema.org/Text",
                        "https://metadata.datadrivendiscovery.org/types/Attribute",
                        "https://metadata.datadrivendiscovery.org/types/PrimaryKey"
                    ],
                    "type": "VALUE"
                }
            },
            "outputs": [
                {
                    "id": "produce"
                }
            ],
            "primitive": {
                "digest": "8b12a9aececdc5b7a4d5ef47cd04cda75592fd24f49922776b614d4bbeeb97f1",
                "id": "e193afa1-b45e-4d29-918f-5bb1fa3b88a7",
                "name": "Determine missing semantic types for columns automatically",
                "python_path": "d3m.primitives.schema_discovery.profiler.Common",
                "version": "0.2.0"
            },
            "type": "PRIMITIVE"
        },
        {
            "arguments": {
                "inputs": {
                    "data": "steps.1.produce",
                    "type": "CONTAINER"
                }
            },
            "hyperparams": {
                "columns": {
                    "data": [
                        6
                    ],
                    "type": "VALUE"
                },
                "semantic_types": {
                    "data": [
                        "https://metadata.datadrivendiscovery.org/types/Attribute"
                    ],
                    "type": "VALUE"
                }
            },
            "outputs": [
                {
                    "id": "produce"
                }
            ],
            "primitive": {
                "digest": "1ce3100831f0fe7c10aa54f4957a272051f179e6815f2d43088a25d62ed81cff",
                "id": "3002bc5b-fa47-4a3d-882e-a8b5f3d756aa",
                "name": "Remove semantic types from columns",
                "python_path": "d3m.primitives.data_transformation.remove_semantic_types.Common",
                "version": "0.1.0"
            },
            "type": "PRIMITIVE"
        },
        {
            "arguments": {
                "inputs": {
                    "data": "steps.2.produce",
                    "type": "CONTAINER"
                }
            },
            "outputs": [
                {
                    "id": "produce"
                }
            ],
            "primitive": {
                "digest": "f1215fe3351a2e8bf495f9ed5ed50e88b30d78d4d7ebd9e13bb544e63a10994b",
                "id": "d510cb7a-1782-4f51-b44c-58f0236e47c7",
                "name": "Parses strings into their types",
                "python_path": "d3m.primitives.data_transformation.column_parser.Common",
                "version": "0.6.0"
            },
            "type": "PRIMITIVE"
        },
        {
            "arguments": {
                "inputs": {
                    "data": "steps.3.produce",
                    "type": "CONTAINER"
                }
            },
            "hyperparams": {
                "semantic_types": {
                    "data": [
                        "https://metadata.datadrivendiscovery.org/types/Attribute"
                    ],
                    "type": "VALUE"
                }
            },
            "outputs": [
                {
                    "id": "produce"
                }
            ],
            "primitive": {
                "digest": "30cceb9812b430d6550d54766b4f674b68b92531fc2ad63f56818ea002399c13",
                "id": "4503a4c6-42f7-45a1-a1d4-ed69699cf5e1",
                "name": "Extracts columns by semantic type",
                "python_path": "d3m.primitives.data_transformation.extract_columns_by_semantic_types.Common",
                "version": "0.3.0"
            },
            "type": "PRIMITIVE"
        },
        {
            "arguments": {
                "inputs": {
                    "data": "steps.3.produce",
                    "type": "CONTAINER"
                }
            },
            "hyperparams": {
                "semantic_types": {
                    "data": [
                        "https://metadata.datadrivendiscovery.org/types/TrueTarget"
                    ],
                    "type": "VALUE"
                }
            },
            "outputs": [
                {
                    "id": "produce"
                }
            ],
            "primitive": {
                "digest": "30cceb9812b430d6550d54766b4f674b68b92531fc2ad63f56818ea002399c13",
                "id": "4503a4c6-42f7-45a1-a1d4-ed69699cf5e1",
                "name": "Extracts columns by semantic type",
                "python_path": "d3m.primitives.data_transformation.extract_columns_by_semantic_types.Common",
                "version": "0.3.0"
            },
            "type": "PRIMITIVE"
        },
        {
            "arguments": {
                "inputs": {
                    "data": "steps.4.produce",
                    "type": "CONTAINER"
                },
                "outputs": {
                    "data": "steps.5.produce",
                    "type": "CONTAINER"
                }
            },
            "hyperparams": {
                "nbins": {
                    "data": 9,
                    "type": "VALUE"
                },
                "problem_type": {
                    "data": "regression",
                    "type": "VALUE"
                }
            },
            "outputs": [
                {
                    "id": "produce"
                }
            ],
            "primitive": {
                "digest": "59d1d7148314d3df611c81bdae4ae80c82843eb8477e8af358bc257f6a435c4c",
                "id": "215f554e-15f4-4174-9743-03cddad91dc4",
                "name": "S2TMBplus feature selector",
                "python_path": "d3m.primitives.feature_selection.score_based_markov_blanket.RPI",
                "version": "v2020.5.18"
            },
            "type": "PRIMITIVE"
        },
        {
            "arguments": {
                "inputs": {
                    "data": "steps.6.produce",
                    "type": "CONTAINER"
                },
                "outputs": {
                    "data": "steps.5.produce",
                    "type": "CONTAINER"
                }
            },
            "hyperparams": {
                "learning_rate": {
                    "data": 0.37037037037037035,
                    "type": "VALUE"
                },
                "n_estimators": {
                    "data": 27,
                    "type": "VALUE"
                }
            },
            "outputs": [
                {
                    "id": "produce"
                }
            ],
            "primitive": {
                "digest": "8f5533556a8869633ceb3faee50c40f19f84ab1db4e25aa3d8e9391430a2ed2a",
                "id": "2a031907-6b2c-3390-b365-921f89c8816a",
                "name": "sklearn.ensemble.gradient_boosting.GradientBoostingRegressor",
                "python_path": "d3m.primitives.regression.gradient_boosting.SKlearn",
                "version": "2019.6.7"
            },
            "type": "PRIMITIVE"
        },
        {
            "arguments": {
                "inputs": {
                    "data": "steps.7.produce",
                    "type": "CONTAINER"
                },
                "reference": {
                    "data": "steps.0.produce",
                    "type": "CONTAINER"
                }
            },
            "outputs": [
                {
                    "id": "produce"
                }
            ],
            "primitive": {
                "digest": "2994d9885ddeb72f5a47a8fb04e27fe3f684adebf7c5dc27cb56392475dbb29c",
                "id": "8d38b340-f83f-4877-baaa-162f8e551736",
                "name": "Construct pipeline predictions output",
                "python_path": "d3m.primitives.data_transformation.construct_predictions.Common",
                "version": "0.3.0"
            },
            "type": "PRIMITIVE"
        }
    ]
}