{
    "id": "cd348ca6-690a-491a-a556-e20876f26a43",
    "schema": "https://metadata.datadrivendiscovery.org/schemas/v0/pipeline.json",
    "created": "2019-12-12T16:50:11.591253Z",
    "inputs": [
        {
            "name": "dataset inputs"
        }
    ],
    "outputs": [
        {
            "data": "steps.6.produce",
            "name": "output predictions"
        }
    ],
    "steps": [
        {
            "type": "PRIMITIVE",
            "primitive": {
                "id": "4b42ce1e-9b98-4a25-b68e-fad13311eb65",
                "version": "0.3.0",
                "python_path": "d3m.primitives.data_transformation.dataset_to_dataframe.Common",
                "name": "Extract a DataFrame from a Dataset",
                "digest": "639d15e7fc2586589050d7908c0e1a654f065ab5315edb9cf4192b4dd89c7004"
            },
            "arguments": {
                "inputs": {
                    "type": "CONTAINER",
                    "data": "inputs.0"
                }
            },
            "outputs": [
                {
                    "id": "produce"
                }
            ]
        },
        {
            "type": "PRIMITIVE",
            "primitive": {
                "id": "d510cb7a-1782-4f51-b44c-58f0236e47c7",
                "version": "0.5.0",
                "python_path": "d3m.primitives.data_transformation.column_parser.Common",
                "name": "Parses strings into their types",
                "digest": "6a6c7777bb8a19b0021f77b271ac03e1d068b9a5deb27c9346e60510ce5e0938"
            },
            "arguments": {
                "inputs": {
                    "type": "CONTAINER",
                    "data": "steps.0.produce"
                }
            },
            "outputs": [
                {
                    "id": "produce"
                }
            ]
        },
        {
            "type": "PRIMITIVE",
            "primitive": {
                "id": "4503a4c6-42f7-45a1-a1d4-ed69699cf5e1",
                "version": "0.3.0",
                "python_path": "d3m.primitives.data_transformation.extract_columns_by_semantic_types.Common",
                "name": "Extracts columns by semantic type",
                "digest": "9aca478606e903ee5ef707aa641be2ea3d3e7e11a19745d95e706a0c9ab3079e"
            },
            "arguments": {
                "inputs": {
                    "type": "CONTAINER",
                    "data": "steps.1.produce"
                }
            },
            "outputs": [
                {
                    "id": "produce"
                }
            ],
            "hyperparams": {
                "semantic_types": {
                    "type": "VALUE",
                    "data": [
                        "https://metadata.datadrivendiscovery.org/types/Attribute"
                    ]
                },
                "exclude_columns": {
                    "type": "VALUE",
                    "data": [
                        1,
                        2,
                        3,
                        4,
                        5,
                        20,
                        21,
                        22,
                        23,
                        27
                    ]
                }
            }
        },
        {
            "type": "PRIMITIVE",
            "primitive": {
                "id": "f410b951-1cb6-481c-8d95-2d97b31d411d",
                "version": "3.1.1",
                "python_path": "d3m.primitives.natural_language_processing.lda.Fastlvm",
                "name": "Latent Dirichlet Allocation Topic Modelling",
                "digest": "f56d5dc3cf30feb10ddc6ad26a54e7a9527c6ed0fb83da0f95cd3c9701087db4"
            },
            "arguments": {
                "inputs": {
                    "type": "CONTAINER",
                    "data": "steps.2.produce"
                }
            },
            "outputs": [
                {
                    "id": "produce"
                }
            ],
            "hyperparams": {
                "k": {
                    "type": "VALUE",
                    "data": 100
                },
                "iters": {
                    "type": "VALUE",
                    "data": 100
                },
                "frac": {
                    "type": "VALUE",
                    "data": 0.001
                }
            }
        },
        {
            "type": "PRIMITIVE",
            "primitive": {
                "id": "4503a4c6-42f7-45a1-a1d4-ed69699cf5e1",
                "version": "0.3.0",
                "python_path": "d3m.primitives.data_transformation.extract_columns_by_semantic_types.Common",
                "name": "Extracts columns by semantic type",
                "digest": "9aca478606e903ee5ef707aa641be2ea3d3e7e11a19745d95e706a0c9ab3079e"
            },
            "arguments": {
                "inputs": {
                    "type": "CONTAINER",
                    "data": "steps.1.produce"
                }
            },
            "outputs": [
                {
                    "id": "produce"
                }
            ],
            "hyperparams": {
                "semantic_types": {
                    "type": "VALUE",
                    "data": [
                        "https://metadata.datadrivendiscovery.org/types/TrueTarget"
                    ]
                }
            }
        },
        {
            "type": "PRIMITIVE",
            "primitive": {
                "id": "e770fae6-da6d-45f8-86bf-38a121a4e65a",
                "version": "3.1.1",
                "python_path": "d3m.primitives.classification.cover_tree.Fastlvm",
                "name": "Nearest Neighbor Classification with Cover Trees",
                "digest": "18754d99f5e776e0d60fed1c57f690cf58a58d609e904c71964094a1ca06a462"
            },
            "arguments": {
                "inputs": {
                    "type": "CONTAINER",
                    "data": "steps.3.produce"
                },
                "outputs": {
                    "type": "CONTAINER",
                    "data": "steps.4.produce"
                }
            },
            "outputs": [
                {
                    "id": "produce"
                }
            ],
            "hyperparams": {
                "k": {
                    "type": "VALUE",
                    "data": 50
                }
            }
        },
        {
            "type": "PRIMITIVE",
            "primitive": {
                "id": "8d38b340-f83f-4877-baaa-162f8e551736",
                "version": "0.3.0",
                "python_path": "d3m.primitives.data_transformation.construct_predictions.Common",
                "name": "Construct pipeline predictions output",
                "digest": "2769ce7b829f224dc7468b48da4462517b2a6260a9772827017dd9da2690b42a"
            },
            "arguments": {
                "inputs": {
                    "type": "CONTAINER",
                    "data": "steps.5.produce"
                },
                "reference": {
                    "type": "CONTAINER",
                    "data": "steps.0.produce"
                }
            },
            "outputs": [
                {
                    "id": "produce"
                }
            ]
        }
    ],
    "digest": "ba644389ba5c31c79887f77d40031d11fcc42ffffaf410943c80035a3d0e0896"
}